<?xml version="1.0" encoding="UTF-8" standalone="no"?>
<svg
   viewBox="0 0 900.00003 800"
   version="1.1"
   id="svg4"
   sodipodi:docname="blob-people-s.svg"
   width="900"
   height="800"
   inkscape:version="1.1.2 (b8e25be833, 2022-02-05)"
   xmlns:inkscape="http://www.inkscape.org/namespaces/inkscape"
   xmlns:sodipodi="http://sodipodi.sourceforge.net/DTD/sodipodi-0.dtd"
   xmlns="http://www.w3.org/2000/svg"
   xmlns:svg="http://www.w3.org/2000/svg">
  <defs
     id="defs8" />
  <sodipodi:namedview
     id="namedview6"
     pagecolor="#ffffff"
     bordercolor="#666666"
     borderopacity="1.0"
     inkscape:pageshadow="2"
     inkscape:pageopacity="0.0"
     inkscape:pagecheckerboard="0"
     showgrid="false"
     fit-margin-top="0"
     fit-margin-left="0"
     fit-margin-right="0"
     fit-margin-bottom="0"
     inkscape:zoom="0.14385204"
     inkscape:cx="1115.7297"
     inkscape:cy="1723.9936"
     inkscape:window-width="1280"
     inkscape:window-height="961"
     inkscape:window-x="1592"
     inkscape:window-y="-7"
     inkscape:window-maximized="1"
     inkscape:current-layer="svg4"
     width="300px" />
  <g
     id="g928"
     transform="matrix(0.40829282,0,0,0.46798704,-90.958567,-110.80605)">
    <path
       fill="#000000"
       d="m 1811.883,1550.5513 c -173.1818,147.9063 -305.6785,254.211 -435.8806,232.9918 -131.3903,-21.0476 -259.8433,-166.8535 -455.81141,-360.078 C 724.22299,1230.2409 460.19458,992.53492 457.21277,800.03283 454.55251,608.91344 711.75069,463.1694 970.46593,371.51328 1229.1811,279.85712 1489.4134,242.28894 1729.3701,360.56477 c 240.8236,116.72148 461.693,390.66971 466.2217,621.53503 3.3403,231.0367 -210.2056,421.9276 -383.7088,568.4515 z"
       id="path2"
       style="fill:#000000;fill-opacity:1;stroke-width:13.0315" />
    <circle
       style="fill:#000000;fill-opacity:1;stroke-width:6.0945"
       id="path1351"
       cx="768.1507"
       cy="1567.5826"
       r="149.45914" />
    <ellipse
       style="fill:#000000;fill-opacity:1;stroke-width:2.67796"
       id="path1351-2-9"
       cx="1849.1222"
       cy="1758.7516"
       rx="59.088497"
       ry="72.991676" />
    <circle
       style="fill:#000000;fill-opacity:1;stroke-width:3.11812"
       id="path1351-9"
       cx="538.74805"
       cy="1803.9369"
       r="76.467468" />
  </g>
</svg>
